{
  "_url": "GET /api/year-plan",
  "_params": "organizationalUnitId (required)",

  "items": [{
    "yearPlanId": "string",
    "title": "string",
    "number": 0,
    "short_text": "string",
    "publishedAt": "2019-06-18T08:42:15.326Z"
  }]
}